; Engine configuration file.
; It's best edited using the editor UI and not directly,
; since the parameters that go here are not all obvious.
;
; Format:
;   [section] ; section goes between []
;   param=value ; assign values to parameters

config_version=4

_global_script_classes=[  ]
_global_script_class_icons={
}

[application]

config/name="Paddle Ball"
run/main_scene="res://Main.tscn"
config/icon="res://icon.png"

[autoload]

AgonesSDK="*res://addons/agones/agones_sdk.gd"

[display]

window/size/width=320
window/size/height=180
window/size/test_width=960
window/size/test_height=540
window/stretch/mode="2d"
window/stretch/aspect="keep"

[editor_plugins]

enabled=PoolStringArray( "res://addons/agones/plugin.cfg" )

[input]

player_up={
"deadzone": 0.5,
"events": [ Object(InputEventKey,"resource_local_to_scene":false,"resource_name":"","device":0,"alt":false,"shift":false,"control":false,"meta":false,"command":false,"pressed":false,"scancode":16777232,"physical_scancode":0,"unicode":0,"echo":false,"script":null)
 ]
}
player_down={
"deadzone": 0.5,
"events": [ Object(InputEventKey,"resource_local_to_scene":false,"resource_name":"","device":0,"alt":false,"shift":false,"control":false,"meta":false,"command":false,"pressed":false,"scancode":16777234,"physical_scancode":0,"unicode":0,"echo":false,"script":null)
 ]
}

[physics]

2d/default_gravity_vector=Vector2( 0, 0 )

[rendering]

quality/driver/driver_name="GLES2"
2d/snapping/use_gpu_pixel_snap=true
vram_compression/import_etc=true
vram_compression/import_etc2=false
environment/default_environment="res://default_env.tres"
quality/2d/use_pixel_snap=true
